\relax 
\@writefile{toc}{\contentsline {subsection}{\numberline {1.1}Container}{2}}
\@setckpt{./01_intro/container}{
\setcounter{page}{3}
\setcounter{equation}{0}
\setcounter{enumi}{0}
\setcounter{enumii}{0}
\setcounter{enumiii}{0}
\setcounter{enumiv}{0}
\setcounter{footnote}{0}
\setcounter{mpfootnote}{0}
\setcounter{section}{1}
\setcounter{subsection}{1}
\setcounter{subsubsection}{0}
\setcounter{paragraph}{0}
\setcounter{IEEEsubequation}{0}
\setcounter{figure}{0}
\setcounter{table}{0}
\setcounter{IEEEbiography}{0}
}
