\relax 
\@writefile{toc}{\contentsline {section}{\numberline {1}Introduction}{1}}
\newlabel{sec:introduction}{{1}{1}}
\@writefile{toc}{\contentsline {subsection}{\numberline {1.1}Container}{1}}
\@writefile{toc}{\contentsline {subsection}{\numberline {1.2}Docker}{1}}
\@writefile{toc}{\contentsline {subsection}{\numberline {1.3}Clair}{1}}
\@writefile{toc}{\contentsline {section}{\numberline {2}Conclusion}{1}}
\@writefile{toc}{\contentsline {section}{Appendix\nobreakspace  A: Proof of the First Zonklar Equation}{3}}
\bibcite{IEEEhowto:kopka}{1}
\@writefile{toc}{\contentsline {section}{Appendix\nobreakspace  B}{4}}
\@writefile{toc}{\contentsline {section}{References}{4}}
\@writefile{toc}{\contentsline {section}{Biographies}{4}}
\@writefile{toc}{\contentsline {subsection}{Michael Shell}{4}}
\@writefile{toc}{\contentsline {subsection}{John Doe}{4}}
\@writefile{toc}{\contentsline {subsection}{Jane Doe}{4}}
